[
    {
        "id": 1,
        "name": "Adidas FH7355 UNIFO CLB Footbal",
        "price": "1999.00",
        "imageUrl": "https://m.media-amazon.com/images/I/61JSCEv6isL._SL1500_.jpg"
    },
    {
        "id": 2,
         "name": "Nike Paris Saint-Germain Pitch Soccer Ball",
        "price": "1232.00",
        "imageUrl": "https://m.media-amazon.com/images/I/61jMYxfhz9L._SL1000_.jpg"
    },
    {
        "id": 3,
         "name": "Adidas Men's Nemeziz Football Shoes",
        "price": "7992.00",
        "imageUrl": "https://m.media-amazon.com/images/I/71TcTuMvZML._UL1500_.jpg"
    },
    {
        "id": 4,
         "name": "Adidas 20.4 FxG J Football Shoes",
        "price": "8299.00",
        "imageUrl": "https://m.media-amazon.com/images/I/716F3OSM4ZL._UL1500_.jpg"
    },
    {
        "id": 5,
         "name": "Nike Men's Regular Fit T-Shirt",
        "price": "2776.00",
        "imageUrl": "https://m.media-amazon.com/images/I/81jqr3NVvuL._UL1500_.jpg"
    },
    {
        "id": 6,
         "name": "NEVER LOSE Men's Soccer Stockings",
        "price": "499.00",
        "imageUrl": "https://m.media-amazon.com/images/I/71kvssvCwaL._UL1500_.jpg"
    }
]